module gitlab.com/joellgarcia/gointensivo

go 1.19

require (
	github.com/google/uuid v1.3.0
	github.com/mattn/go-sqlite3 v1.14.16
	github.com/rabbitmq/amqp091-go v1.5.0
	github.com/stretchr/testify v1.8.1
)

require (
	github.com/davecgh/go-spew v1.1.1 // indirect
	github.com/pmezard/go-difflib v1.0.0 // indirect
	gopkg.in/yaml.v3 v3.0.1 // indirect
)
